<?xml version="1.0" encoding="iso-8859-1"?>
<!-- Generator: Adobe Illustrator 19.0.0, SVG Export Plug-In . SVG Version: 6.00 Build 0)  -->
<svg xmlns="http://www.w3.org/2000/svg" xmlns:xlink="http://www.w3.org/1999/xlink" version="1.1" id="Layer_1" x="0px" y="0px" viewBox="0 0 511.999 511.999" style="enable-background:new 0 0 511.999 511.999;" xml:space="preserve" width="512px" height="512px">
<g>
	<g>
		<path d="M501.54,91.545l-33.279-33.28c-13.95-13.949-36.649-13.948-50.6,0L164.986,310.939l-70.664-70.664    c-13.951-13.95-36.648-13.95-50.6,0l-33.26,33.26c-13.949,13.95-13.949,36.649,0,50.6l129.581,129.582    c6.759,6.758,15.743,10.479,25.3,10.479c0.006,0,0.013,0,0.019,0c9.565-0.005,18.553-3.736,25.308-10.507l310.896-311.571    C515.487,128.168,515.475,105.481,501.54,91.545z M487.128,127.709L176.231,439.281c-2.905,2.91-6.768,4.515-10.879,4.517    c-0.003,0-0.006,0-0.009,0c-4.107,0-7.969-1.6-10.874-4.505L24.888,309.711c-5.997-5.997-5.997-15.754,0-21.75l33.259-33.26    c2.999-2.999,6.937-4.498,10.875-4.498c3.939,0,7.876,1.499,10.875,4.498l70.856,70.856c7.849,7.847,20.618,7.848,28.466,0    L432.086,72.689c5.997-5.995,15.755-5.997,21.75,0l33.279,33.281C493.106,111.961,493.111,121.712,487.128,127.709z" fill="#91DC5A"/>
	</g>
</g>
<g>
	<g>
		<path d="M287.674,297.728c-3.982-3.983-10.442-3.983-14.425-0.001l-3.192,3.192c-3.983,3.983-3.984,10.442-0.001,14.425    c1.992,1.992,4.602,2.989,7.213,2.989c2.61,0,5.22-0.995,7.211-2.988l3.192-3.192C291.656,308.17,291.657,301.711,287.674,297.728    z" fill="#91DC5A"/>
	</g>
</g>
<g>
	<g>
		<path d="M257.885,327.516c-3.984-3.983-10.443-3.983-14.426,0l-81.922,81.922c-3.983,3.984-3.983,10.443,0,14.426    c1.991,1.992,4.602,2.988,7.212,2.988s5.221-0.995,7.213-2.988l81.922-81.922C261.868,337.958,261.869,331.499,257.885,327.516z" fill="#91DC5A"/>
	</g>
</g>
<g>
</g>
<g>
</g>
<g>
</g>
<g>
</g>
<g>
</g>
<g>
</g>
<g>
</g>
<g>
</g>
<g>
</g>
<g>
</g>
<g>
</g>
<g>
</g>
<g>
</g>
<g>
</g>
<g>
</g>
</svg>
